Tue May 15 15:25:32 CEST 2018
Preloading tcmalloc_minimal.so
Py:Athena            INFO including file "AthenaCommon/Preparation.py"
Py:Athena            INFO using release [WorkDir-22.0.1] [x86_64-slc6-gcc62-opt] [start_stop/7f27402b7e] -- built on [2018-05-15T1307]
Py:Athena            INFO including file "AthenaCommon/Atlas.UnixStandardJob.py"
Py:Athena            INFO executing ROOT6Setup
Py:Athena            INFO configuring AthenaHive with [2] concurrent threads and [2] concurrent events
Py:AlgScheduler      INFO setting up AvalancheSchedulerSvc/AvalancheSchedulerSvc with 2 threads
Py:Athena            INFO including file "AthenaCommon/Execution.py"
Py:Athena            INFO including file "AthExHelloWorld/HelloWorldOptions.py"
Py:Athena            INFO including file "AthenaCommon/runbatch.py"
Py:ConfigurableDb    INFO Read module info for 5478 configurables from 5 genConfDb files
Py:ConfigurableDb    INFO No duplicates have been found: that's good !
[?1034hApplicationMgr       INFO Updating Gaudi::PluginService::SetDebug(level) to level= 'PluginDebugLevel':0
ApplicationMgr       INFO Updating Gaudi::PluginService::SetDebug(level) to level= 'PluginDebugLevel':0
MessageSvc           INFO Activating in a separate thread
ApplicationMgr    SUCCESS 
====================================================================================================================================
                                                   Welcome to ApplicationMgr (GaudiCoreSvc v30r2)
                                          running on pc-tbed-pub-26.cern.ch on Tue May 15 15:25:42 2018
====================================================================================================================================
ApplicationMgr       INFO Successfully loaded modules : AthenaServices
ApplicationMgr       INFO Application Manager Configured successfully
ApplicationMgr                                     INFO Updating Gaudi::PluginService::SetDebug(level) to level= 'PluginDebugLevel':0
AthDictLoaderSvc                                   INFO in initialize...
AthDictLoaderSvc                                   INFO acquired Dso-registry
ClassIDSvc                                         INFO  getRegistryEntries: read 2849 CLIDRegistry entries for module ALL
ChronoStatSvc                                      INFO  Number of skipped events for MemStat-1
CoreDumpSvc                                        INFO install f-a-t-a-l handler... (flag = -1)
CoreDumpSvc                                        INFO Handling signals: 11(Segmentation fault) 7(Bus error) 4(Illegal instruction) 8(Floating point exception) 
AthenaHiveEventLoopMgr                             INFO Initializing AthenaHiveEventLoopMgr - package version AthenaServices-00-00-00
HelloWorld                                         INFO initialize()
HelloWorld                                         INFO   MyInt =    42
HelloWorld                                         INFO   MyBool =   1
HelloWorld                                         INFO   MyDouble = 3.14159
HelloWorld                                         INFO   MyStringVec[0] = Welcome
HelloWorld                                         INFO   MyStringVec[1] = to
HelloWorld                                         INFO   MyStringVec[2] = Athena
HelloWorld                                         INFO   MyStringVec[3] = Framework
HelloWorld                                         INFO   MyStringVec[4] = Tutorial
HelloWorld                                         INFO   MyStringVec[5] = !
HelloWorld                                         INFO   MyDict['Bonjour'] = 'Guten Tag'
HelloWorld                                         INFO   MyDict['Goeiedag'] = 'Ni Hao'
HelloWorld                                         INFO   MyDict['Good Morning'] = 'Bonjour'
HelloWorld                                         INFO   MyDict['one'] = 'ein'
HelloWorld                                         INFO   MyDict['three'] = 'trois'
HelloWorld                                         INFO   MyDict['two'] = 'dos'
HelloWorld                                         INFO   MyTable['1'] = '1'
HelloWorld                                         INFO   MyTable['2'] = '4'
HelloWorld                                         INFO   MyTable['3'] = '9'
HelloWorld                                         INFO   MyTable['4'] = '16'
HelloWorld                                         INFO   MyMatrix[0] = [ 1 2 3 ]
HelloWorld                                         INFO   MyMatrix[1] = [ 4 5 6 ]
HelloWorld                                         INFO   MyMatrix[2] = [ 7 8 9 ]
HelloWorld                                         INFO   MyPrivateHelloTool = HelloTool
HelloWorld                                         INFO   MyPublicHelloTool = HelloTool
HelloWorld                                         INFO MyPrivateHelloTool: Retrieved tool HelloTool
HelloWorld                                         INFO MyPublicHelloTool: Retrieved tool HelloTool
ThreadPoolSvc                                      INFO no thread init tools attached
AvalancheSchedulerSvc                              INFO Activating scheduler in a separate thread
AvalancheSchedulerSvc                              INFO Found 6 algorithms
AvalancheSchedulerSvc                              INFO No unmet INPUT data dependencies were found
PrecedenceSvc                                      INFO Assembling CF and DF task precedence rules
PrecedenceSvc                                      INFO PrecedenceSvc initialized successfully
AvalancheSchedulerSvc                              INFO Concurrency level information:
AvalancheSchedulerSvc                              INFO  o Number of events in flight: 2
AvalancheSchedulerSvc                              INFO  o TBB thread pool size:  'ThreadPoolSize':2
HistogramPersistencySvc                         WARNING Histograms saving not required.
EventSelector                                      INFO  Enter McEventSelector Initialization 
AthenaHiveEventLoopMgr                             INFO Setup EventSelector service EventSelector
ApplicationMgr                                     INFO Application Manager Initialized successfully
HelloWorld                                         INFO start()
ApplicationMgr                                     INFO Application Manager Started successfully
AthenaHiveEventLoopMgr                             INFO Starting loop on events
EventPersistencySvc                     0   0      INFO Added successfully Conversion service:McCnvSvc
AthenaHiveEventLoopMgr                  0   0      INFO   ===>>>  start of run 0    <<<===
ClassIDSvc                              0   0      INFO  getRegistryEntries: read 959 CLIDRegistry entries for module ALL
AthenaHiveEventLoopMgr                  0   0      INFO   ===>>>  start processing event #0, run #0 on slot 0,  0 events processed so far  <<<===
AthenaHiveEventLoopMgr                  0   0      INFO   ===>>>  start processing event #0, run #0 on slot 0,  0 events processed so far  <<<===
AthenaHiveEventLoopMgr                  1   1      INFO   ===>>>  start processing event #1, run #0 on slot 1,  0 events processed so far  <<<===
HelloWorld                              0   0      INFO execute()
HelloWorld                              0   0      INFO An INFO message
HelloWorld                              0   0   WARNING A WARNING message
HelloWorld                              0   0     ERROR An ERROR message
HelloWorld                              0   0     FATAL A FATAL error message
HelloWorld                              0   0      INFO Let the tool MyPublicHelloTool say something:
ToolSvc.PublicHello                     0   0      INFO my message to the world: A Public Message!
HelloWorld                              0   0      INFO Let the tool MyPrivateHelloTool say something:
HelloWorld.HelloTool                    0   0      INFO my message to the world: A Private Message!
HelloWorld                              1   1      INFO execute()
HelloWorld                              1   1      INFO An INFO message
HelloWorld                              1   1   WARNING A WARNING message
HelloWorld                              1   1     ERROR An ERROR message
HelloWorld                              1   1     FATAL A FATAL error message
HelloWorld                              1   1      INFO Let the tool MyPublicHelloTool say something:
ToolSvc.PublicHello                     1   1      INFO my message to the world: A Public Message!
HelloWorld                              1   1      INFO Let the tool MyPrivateHelloTool say something:
HelloWorld.HelloTool                    1   1      INFO my message to the world: A Private Message!
AthenaHiveEventLoopMgr                             INFO   ===>>>  done processing event #0, run #0 on slot 0,  1 events processed so far  <<<===
AthenaHiveEventLoopMgr                  2   0      INFO   ===>>>  start processing event #2, run #0 on slot 0,  1 events processed so far  <<<===
AthenaHiveEventLoopMgr                             INFO   ===>>>  done processing event #1, run #0 on slot 1,  2 events processed so far  <<<===
HelloWorld                              2   0      INFO execute()
HelloWorld                              2   0      INFO An INFO message
HelloWorld                              2   0   WARNING A WARNING message
HelloWorld                              2   0     ERROR An ERROR message
HelloWorld                              2   0     FATAL A FATAL error message
HelloWorld                              2   0      INFO Let the tool MyPublicHelloTool say something:
ToolSvc.PublicHello                     2   0      INFO my message to the world: A Public Message!
HelloWorld                              2   0      INFO Let the tool MyPrivateHelloTool say something:
HelloWorld.HelloTool                    2   0      INFO my message to the world: A Private Message!
AthenaHiveEventLoopMgr                  3   1      INFO   ===>>>  start processing event #3, run #0 on slot 1,  2 events processed so far  <<<===
AthenaHiveEventLoopMgr                             INFO   ===>>>  done processing event #2, run #0 on slot 0,  3 events processed so far  <<<===
HelloWorld                              3   1      INFO execute()
HelloWorld                              3   1      INFO An INFO message
HelloWorld                              3   1   WARNING A WARNING message
HelloWorld                              3   1     ERROR An ERROR message
HelloWorld                              3   1     FATAL A FATAL error message
HelloWorld                              3   1      INFO Let the tool MyPublicHelloTool say something:
ToolSvc.PublicHello                     3   1      INFO my message to the world: A Public Message!
HelloWorld                              3   1      INFO Let the tool MyPrivateHelloTool say something:
HelloWorld.HelloTool                    3   1      INFO my message to the world: A Private Message!
AthenaHiveEventLoopMgr                  4   0      INFO   ===>>>  start processing event #4, run #0 on slot 0,  3 events processed so far  <<<===
AthenaHiveEventLoopMgr                             INFO   ===>>>  done processing event #3, run #0 on slot 1,  4 events processed so far  <<<===
HelloWorld                              4   0      INFO execute()
HelloWorld                              4   0      INFO An INFO message
HelloWorld                              4   0   WARNING A WARNING message
HelloWorld                              4   0     ERROR An ERROR message
HelloWorld                              4   0     FATAL A FATAL error message
HelloWorld                              4   0      INFO Let the tool MyPublicHelloTool say something:
ToolSvc.PublicHello                     4   0      INFO my message to the world: A Public Message!
HelloWorld                              4   0      INFO Let the tool MyPrivateHelloTool say something:
HelloWorld.HelloTool                    4   0      INFO my message to the world: A Private Message!
AthenaHiveEventLoopMgr                  5   1      INFO   ===>>>  start processing event #5, run #0 on slot 1,  4 events processed so far  <<<===
AthenaHiveEventLoopMgr                             INFO   ===>>>  done processing event #4, run #0 on slot 0,  5 events processed so far  <<<===
HelloWorld                              5   1      INFO execute()
HelloWorld                              5   1      INFO An INFO message
HelloWorld                              5   1   WARNING A WARNING message
HelloWorld                              5   1     ERROR An ERROR message
HelloWorld                              5   1     FATAL A FATAL error message
HelloWorld                              5   1      INFO Let the tool MyPublicHelloTool say something:
ToolSvc.PublicHello                     5   1      INFO my message to the world: A Public Message!
HelloWorld                              5   1      INFO Let the tool MyPrivateHelloTool say something:
HelloWorld.HelloTool                    5   1      INFO my message to the world: A Private Message!
AthenaHiveEventLoopMgr                  6   0      INFO   ===>>>  start processing event #6, run #0 on slot 0,  5 events processed so far  <<<===
AthenaHiveEventLoopMgr                             INFO   ===>>>  done processing event #5, run #0 on slot 1,  6 events processed so far  <<<===
HelloWorld                              6   0      INFO execute()
HelloWorld                              6   0      INFO An INFO message
HelloWorld                              6   0   WARNING A WARNING message
HelloWorld                              6   0     ERROR An ERROR message
HelloWorld                              6   0     FATAL A FATAL error message
HelloWorld                              6   0      INFO Let the tool MyPublicHelloTool say something:
ToolSvc.PublicHello                     6   0      INFO my message to the world: A Public Message!
HelloWorld                              6   0      INFO Let the tool MyPrivateHelloTool say something:
HelloWorld.HelloTool                    6   0      INFO my message to the world: A Private Message!
AthenaHiveEventLoopMgr                  7   1      INFO   ===>>>  start processing event #7, run #0 on slot 1,  6 events processed so far  <<<===
AthenaHiveEventLoopMgr                             INFO   ===>>>  done processing event #6, run #0 on slot 0,  7 events processed so far  <<<===
HelloWorld                              7   1      INFO execute()
HelloWorld                              7   1      INFO An INFO message
HelloWorld                              7   1   WARNING A WARNING message
HelloWorld                              7   1     ERROR An ERROR message
HelloWorld                              7   1     FATAL A FATAL error message
HelloWorld                              7   1      INFO Let the tool MyPublicHelloTool say something:
ToolSvc.PublicHello                     7   1      INFO my message to the world: A Public Message!
HelloWorld                              7   1      INFO Let the tool MyPrivateHelloTool say something:
HelloWorld.HelloTool                    7   1      INFO my message to the world: A Private Message!
AthenaHiveEventLoopMgr                  8   0      INFO   ===>>>  start processing event #8, run #0 on slot 0,  7 events processed so far  <<<===
AthenaHiveEventLoopMgr                             INFO   ===>>>  done processing event #7, run #0 on slot 1,  8 events processed so far  <<<===
HelloWorld                              8   0      INFO execute()
HelloWorld                              8   0      INFO An INFO message
HelloWorld                              8   0   WARNING A WARNING message
HelloWorld                              8   0     ERROR An ERROR message
HelloWorld                              8   0     FATAL A FATAL error message
HelloWorld                              8   0      INFO Let the tool MyPublicHelloTool say something:
ToolSvc.PublicHello                     8   0      INFO my message to the world: A Public Message!
HelloWorld                              8   0      INFO Let the tool MyPrivateHelloTool say something:
HelloWorld.HelloTool                    8   0      INFO my message to the world: A Private Message!
AthenaHiveEventLoopMgr                  9   1      INFO   ===>>>  start processing event #9, run #0 on slot 1,  8 events processed so far  <<<===
AthenaHiveEventLoopMgr                             INFO   ===>>>  done processing event #8, run #0 on slot 0,  9 events processed so far  <<<===
HelloWorld                              9   1      INFO execute()
HelloWorld                              9   1      INFO An INFO message
HelloWorld                              9   1   WARNING A WARNING message
HelloWorld                              9   1     ERROR An ERROR message
HelloWorld                              9   1     FATAL A FATAL error message
HelloWorld                              9   1      INFO Let the tool MyPublicHelloTool say something:
ToolSvc.PublicHello                     9   1      INFO my message to the world: A Public Message!
HelloWorld                              9   1      INFO Let the tool MyPrivateHelloTool say something:
HelloWorld.HelloTool                    9   1      INFO my message to the world: A Private Message!
AthenaHiveEventLoopMgr                             INFO   ===>>>  done processing event #9, run #0 on slot 1,  10 events processed so far  <<<===
AthenaHiveEventLoopMgr                             INFO ---> Loop Finished (seconds): 0.0162758
HelloWorld                                         INFO stop()
ApplicationMgr                                     INFO Application Manager Stopped successfully
IncidentProcAlg1                                   INFO Finalize
SGInputLoader                                      INFO Finalizing SGInputLoader...
HelloWorld                                         INFO finalize()
IncidentProcAlg2                                   INFO Finalize
EventSelector                                      INFO finalize
AvalancheSchedulerSvc                              INFO Joining Scheduler thread
EventDataSvc                                       INFO Finalizing EventDataSvc - package version StoreGate-00-00-00
AthDictLoaderSvc                                   INFO in finalize...
ToolSvc                                            INFO Removing all tools created by ToolSvc
*****Chrono*****                                   INFO ****************************************************************************************************
*****Chrono*****                                   INFO  The Final CPU consumption ( Chrono ) Table (ordered)
*****Chrono*****                                   INFO ****************************************************************************************************
ChronoStatSvc                                      INFO Time User   : Tot=  100 [ms]                                             #=  1
*****Chrono*****                                   INFO ****************************************************************************************************
ChronoStatSvc.finalize()                           INFO  Service finalized successfully 
ApplicationMgr                                     INFO Application Manager Finalized successfully
ApplicationMgr                                     INFO Application Manager Terminated successfully
Py:Athena            INFO leaving with code 0: "successful run"
